07 - Latched and Sequential circuits/lab07_b/simulation/qsim/lab07_b.msim.vcd
$comment
	File created using the following command:
		vcd file lab07_b.msim.vcd -direction
$end
$date
	Sun Nov 01 19:20:28 2020
$end
$version
	ModelSim Version 10.5b
$end
$timescale
	1ps
$end

$scope module lab07_b_vlg_vec_tst $end
$var reg 1 ! R $end
$var reg 1 " S $end
$var reg 1 # clock $end
$var wire 1 $ LED0 $end
$var wire 1 % LED1 $end
$var wire 1 & LED9 $end
$var wire 1 ' Q $end
$var wire 1 ( Qbar $end

$scope module i1 $end
$var wire 1 ) gnd $end
$var wire 1 * vcc $end
$var wire 1 + unknown $end
$var tri1 1 , devclrn $end
$var tri1 1 - devpor $end
$var tri1 1 . devoe $end
$var wire 1 / ~QUARTUS_CREATED_GND~I_combout $end
$var wire 1 0 S~input_o $end
$var wire 1 1 clock~input_o $end
$var wire 1 2 R~input_o $end
$var wire 1 3 a3~combout $end
$var wire 1 4 a4~combout $end
$upscope $end
$upscope $end
$enddefinitions $end
#0
$dumpvars
0!
0"
0#
0$
0%
0&
x'
x(
0)
1*
x+
1,
1-
1.
0/
00
01
02
x3
x4
$end
#10000
1"
10
1$
#20000
1!
0"
12
00
0$
1%
#30000
1"
10
1$
#40000
1#
0!
0"
11
02
00
0$
0%
1&
#50000
1"
10
1$
14
03
1'
0(
#60000
1!
0"
12
00
0$
1%
13
0'
04
1(
#70000
1"
10
1$
14
0(
#80000
0#
0!
0"
01
02
00
0$
0%
0&
04
1(
#90000
1"
10
1$
#100000
1!
0"
12
00
0$
1%
#110000
1"
10
1$
#120000
1#
0!
0"
11
02
00
0$
0%
1&
#130000
1"
10
1$
14
03
1'
0(
#140000
1!
0"
12
00
0$
1%
13
0'
04
1(
#150000
1"
10
1$
14
0(
#160000
0#
0!
0"
01
02
00
0$
0%
0&
04
1(
#170000
1"
10
1$
#180000
1!
0"
12
00
0$
1%
#190000
1"
10
1$
