07 - Latched and Sequential circuits/lab07_a/simulation/qsim/lab07_a.msim.vcd
$comment
	File created using the following command:
		vcd file lab07_a.msim.vcd -direction
$end
$date
	Sun Nov 01 19:36:48 2020
$end
$version
	ModelSim Version 10.5b
$end
$timescale
	1ps
$end

$scope module lab07_a_vlg_vec_tst $end
$var reg 1 ! R $end
$var reg 1 " S $end
$var wire 1 # LED0 $end
$var wire 1 $ LED1 $end
$var wire 1 % Q $end
$var wire 1 & Qbar $end

$scope module i1 $end
$var wire 1 ' gnd $end
$var wire 1 ( vcc $end
$var wire 1 ) unknown $end
$var tri1 1 * devclrn $end
$var tri1 1 + devpor $end
$var tri1 1 , devoe $end
$var wire 1 - ~QUARTUS_CREATED_GND~I_combout $end
$var wire 1 . S~input_o $end
$var wire 1 / R~input_o $end
$var wire 1 0 a1~combout $end
$var wire 1 1 a2~combout $end
$upscope $end
$upscope $end
$enddefinitions $end
#0
$dumpvars
0!
0"
0#
0$
x%
x&
0'
1(
x)
1*
1+
1,
0-
0.
0/
x0
x1
$end
#10000
1"
1.
1#
11
00
1%
0&
#20000
1!
0"
1/
0.
0#
1$
10
0%
01
1&
#30000
1"
1.
1#
11
0&
#40000
0!
0"
0/
0.
0#
0$
01
1&
#50000
1"
1.
1#
11
00
1%
0&
#60000
1!
0"
1/
0.
0#
1$
10
0%
01
1&
#70000
1"
1.
1#
11
0&
#80000
0!
0"
0/
0.
0#
0$
01
1&
#90000
1"
1.
1#
11
00
1%
0&
#100000
1!
0"
1/
0.
0#
1$
10
0%
01
1&
#110000
1"
1.
1#
11
0&
#120000
0!
0"
0/
0.
0#
0$
01
1&
#130000
1"
1.
1#
11
00
1%
0&
#140000
1!
0"
1/
0.
0#
1$
10
0%
01
1&
#150000
1"
1.
1#
11
0&
#160000
0!
0"
0/
0.
0#
0$
01
1&
#170000
1"
1.
1#
11
00
1%
0&
#180000
1!
0"
1/
0.
0#
1$
10
0%
01
1&
#190000
1"
1.
1#
11
0&
