08 - A Finite State Machine - Up Down Counter/lab08_p/simulation/qsim/lab08_p.msim.vcd
$comment
	File created using the following command:
		vcd file lab08_p.msim.vcd -direction
$end
$date
	Thu Nov 05 19:54:03 2020
$end
$version
	ModelSim Version 10.5b
$end
$timescale
	1ps
$end

$scope module lab08_p_vlg_vec_tst $end
$var reg 1 ! clock $end
$var reg 1 " reset $end
$var reg 1 # w $end
$var wire 1 $ SSD [6] $end
$var wire 1 % SSD [5] $end
$var wire 1 & SSD [4] $end
$var wire 1 ' SSD [3] $end
$var wire 1 ( SSD [2] $end
$var wire 1 ) SSD [1] $end
$var wire 1 * SSD [0] $end
$var wire 1 + clock_1Hz $end
$var wire 1 , clock_LED $end
$var wire 1 - reset_LED $end
$var wire 1 . w_LED $end

$scope module i1 $end
$var wire 1 / gnd $end
$var wire 1 0 vcc $end
$var wire 1 1 unknown $end
$var tri1 1 2 devclrn $end
$var tri1 1 3 devpor $end
$var tri1 1 4 devoe $end
$var wire 1 5 ~QUARTUS_CREATED_GND~I_combout $end
$var wire 1 6 clock~input_o $end
$var wire 1 7 clock~inputCLKENA0_outclk $end
$var wire 1 8 comb_6|Add0~109_sumout $end
$var wire 1 9 comb_6|Add0~110 $end
$var wire 1 : comb_6|Add0~93_sumout $end
$var wire 1 ; comb_6|Add0~94 $end
$var wire 1 < comb_6|Add0~97_sumout $end
$var wire 1 = comb_6|Add0~98 $end
$var wire 1 > comb_6|Add0~101_sumout $end
$var wire 1 ? comb_6|Add0~102 $end
$var wire 1 @ comb_6|Add0~105_sumout $end
$var wire 1 A comb_6|Add0~106 $end
$var wire 1 B comb_6|Add0~73_sumout $end
$var wire 1 C comb_6|Add0~74 $end
$var wire 1 D comb_6|Add0~77_sumout $end
$var wire 1 E comb_6|Add0~78 $end
$var wire 1 F comb_6|Add0~33_sumout $end
$var wire 1 G comb_6|Add0~34 $end
$var wire 1 H comb_6|Add0~37_sumout $end
$var wire 1 I comb_6|Add0~38 $end
$var wire 1 J comb_6|Add0~41_sumout $end
$var wire 1 K comb_6|Add0~42 $end
$var wire 1 L comb_6|Add0~45_sumout $end
$var wire 1 M comb_6|Add0~46 $end
$var wire 1 N comb_6|Add0~49_sumout $end
$var wire 1 O comb_6|Add0~50 $end
$var wire 1 P comb_6|Add0~81_sumout $end
$var wire 1 Q comb_6|Add0~82 $end
$var wire 1 R comb_6|Add0~85_sumout $end
$var wire 1 S comb_6|Add0~86 $end
$var wire 1 T comb_6|Add0~89_sumout $end
$var wire 1 U comb_6|Add0~90 $end
$var wire 1 V comb_6|Add0~53_sumout $end
$var wire 1 W comb_6|Add0~54 $end
$var wire 1 X comb_6|Add0~13_sumout $end
$var wire 1 Y comb_6|Add0~14 $end
$var wire 1 Z comb_6|Add0~57_sumout $end
$var wire 1 [ comb_6|Add0~58 $end
$var wire 1 \ comb_6|Add0~17_sumout $end
$var wire 1 ] comb_6|Add0~18 $end
$var wire 1 ^ comb_6|Add0~21_sumout $end
$var wire 1 _ comb_6|Add0~22 $end
$var wire 1 ` comb_6|Add0~25_sumout $end
$var wire 1 a comb_6|Add0~26 $end
$var wire 1 b comb_6|Add0~29_sumout $end
$var wire 1 c comb_6|Add0~30 $end
$var wire 1 d comb_6|Add0~61_sumout $end
$var wire 1 e comb_6|Add0~62 $end
$var wire 1 f comb_6|Add0~65_sumout $end
$var wire 1 g comb_6|Add0~66 $end
$var wire 1 h comb_6|Add0~69_sumout $end
$var wire 1 i comb_6|Add0~70 $end
$var wire 1 j comb_6|Add0~1_sumout $end
$var wire 1 k comb_6|count[25]~feeder_combout $end
$var wire 1 l comb_6|Add0~2 $end
$var wire 1 m comb_6|Add0~6 $end
$var wire 1 n comb_6|Add0~9_sumout $end
$var wire 1 o comb_6|LessThan0~0_combout $end
$var wire 1 p comb_6|LessThan0~1_combout $end
$var wire 1 q comb_6|LessThan0~5_combout $end
$var wire 1 r comb_6|LessThan0~6_combout $end
$var wire 1 s comb_6|LessThan0~7_combout $end
$var wire 1 t comb_6|LessThan0~8_combout $end
$var wire 1 u comb_6|Add0~5_sumout $end
$var wire 1 v comb_6|LessThan0~2_combout $end
$var wire 1 w comb_6|LessThan0~3_combout $end
$var wire 1 x comb_6|LessThan0~4_combout $end
$var wire 1 y comb_6|clock_1Hz~0_combout $end
$var wire 1 z comb_6|clock_1Hz~feeder_combout $end
$var wire 1 { comb_6|clock_1Hz~q $end
$var wire 1 | w~input_o $end
$var wire 1 } reset~input_o $end
$var wire 1 ~ d.0001~q $end
$var wire 1 !! D~52_combout $end
$var wire 1 "! d.0000~q $end
$var wire 1 #! D~46_combout $end
$var wire 1 $! d.1111~q $end
$var wire 1 %! D~45_combout $end
$var wire 1 &! d.1110~q $end
$var wire 1 '! D~41_combout $end
$var wire 1 (! d.1101~q $end
$var wire 1 )! D~44_combout $end
$var wire 1 *! d.1100~q $end
$var wire 1 +! D~40_combout $end
$var wire 1 ,! d.1011~q $end
$var wire 1 -! D~51_combout $end
$var wire 1 .! d.1010~feeder_combout $end
$var wire 1 /! d.1010~q $end
$var wire 1 0! D~48_combout $end
$var wire 1 1! d.1001~q $end
$var wire 1 2! D~53_combout $end
$var wire 1 3! d.1000~q $end
$var wire 1 4! D~49_combout $end
$var wire 1 5! d.0111~q $end
$var wire 1 6! D~42_combout $end
$var wire 1 7! d.0110~q $end
$var wire 1 8! D~43_combout $end
$var wire 1 9! d.0101~q $end
$var wire 1 :! D~39_combout $end
$var wire 1 ;! d.0100~q $end
$var wire 1 <! D~50_combout $end
$var wire 1 =! d.0011~q $end
$var wire 1 >! D~47_combout $end
$var wire 1 ?! d.0010~q $end
$var wire 1 @! D~38_combout $end
$var wire 1 A! WideOr6~combout $end
$var wire 1 B! SSD[0]~reg0_q $end
$var wire 1 C! WideOr5~combout $end
$var wire 1 D! SSD[1]~reg0_q $end
$var wire 1 E! WideOr4~combout $end
$var wire 1 F! SSD[2]~reg0_q $end
$var wire 1 G! WideOr3~combout $end
$var wire 1 H! SSD[3]~reg0_q $end
$var wire 1 I! WideOr2~combout $end
$var wire 1 J! SSD[4]~reg0_q $end
$var wire 1 K! WideOr1~combout $end
$var wire 1 L! SSD[5]~reg0_q $end
$var wire 1 M! WideOr0~0_combout $end
$var wire 1 N! WideOr0~combout $end
$var wire 1 O! SSD[6]~reg0_q $end
$var wire 1 P! comb_6|count [27] $end
$var wire 1 Q! comb_6|count [26] $end
$var wire 1 R! comb_6|count [25] $end
$var wire 1 S! comb_6|count [24] $end
$var wire 1 T! comb_6|count [23] $end
$var wire 1 U! comb_6|count [22] $end
$var wire 1 V! comb_6|count [21] $end
$var wire 1 W! comb_6|count [20] $end
$var wire 1 X! comb_6|count [19] $end
$var wire 1 Y! comb_6|count [18] $end
$var wire 1 Z! comb_6|count [17] $end
$var wire 1 [! comb_6|count [16] $end
$var wire 1 \! comb_6|count [15] $end
$var wire 1 ]! comb_6|count [14] $end
$var wire 1 ^! comb_6|count [13] $end
$var wire 1 _! comb_6|count [12] $end
$var wire 1 `! comb_6|count [11] $end
$var wire 1 a! comb_6|count [10] $end
$var wire 1 b! comb_6|count [9] $end
$var wire 1 c! comb_6|count [8] $end
$var wire 1 d! comb_6|count [7] $end
$var wire 1 e! comb_6|count [6] $end
$var wire 1 f! comb_6|count [5] $end
$var wire 1 g! comb_6|count [4] $end
$var wire 1 h! comb_6|count [3] $end
$var wire 1 i! comb_6|count [2] $end
$var wire 1 j! comb_6|count [1] $end
$var wire 1 k! comb_6|count [0] $end
$upscope $end
$upscope $end
$enddefinitions $end
#0
$dumpvars
0!
0"
0#
0*
0)
0(
0'
0&
0%
0$
0+
0,
0-
0.
0/
10
x1
12
13
14
05
06
07
18
09
0:
0;
0<
0=
0>
0?
0@
0A
0B
0C
0D
0E
0F
0G
0H
0I
0J
0K
0L
0M
0N
0O
0P
0Q
0R
0S
0T
0U
0V
0W
0X
0Y
0Z
0[
0\
0]
0^
0_
0`
0a
0b
0c
0d
0e
0f
0g
0h
0i
0j
0k
0l
0m
0n
1o
1p
1q
1r
1s
0t
0u
1v
1w
1x
0y
0z
0{
0|
0}
0~
1!!
0"!
0#!
0$!
0%!
0&!
0'!
0(!
0)!
0*!
0+!
0,!
0-!
0.!
0/!
00!
01!
02!
03!
04!
05!
06!
07!
08!
09!
0:!
0;!
0<!
0=!
0>!
0?!
1@!
1A!
0B!
0C!
0D!
0E!
0F!
1G!
0H!
1I!
0J!
1K!
0L!
1M!
1N!
0O!
0k!
0j!
0i!
0h!
0g!
0f!
0e!
0d!
0c!
0b!
0a!
0`!
0_!
0^!
0]!
0\!
0[!
0Z!
0Y!
0X!
0W!
0V!
0U!
0T!
0S!
0R!
0Q!
0P!
$end
#10000
1!
16
17
1k!
19
08
1:
0v
0q
0r
0w
0x
0s
1t
1y
1z
#20000
0!
06
07
#30000
1!
16
17
0k!
1{
1+
1,
09
18
0y
0:
0z
1v
1q
1r
1w
1x
1s
0t
1y
1z
1"!
1~
1O!
1L!
1J!
1H!
1B!
1*
1'
1&
1%
1$
1>!
0@!
0N!
0I!
0G!
0A!
1E!
#40000
0!
06
07
#50000
1!
16
17
1k!
19
08
1:
0v
0q
0r
0w
0x
0s
1t
0y
0z
#60000
0!
06
07
#70000
1!
16
17
0k!
0{
0+
0,
09
18
1y
0:
1z
1v
1q
1r
1w
1x
1s
0t
0y
0z
#80000
0!
06
07
#90000
1!
16
17
1k!
19
08
1:
0v
0q
0r
0w
0x
0s
1t
1y
1z
#100000
0!
06
07
#110000
1!
16
17
0k!
1{
1+
1,
09
18
0y
0:
0z
1v
1q
1r
1w
1x
1s
0t
1y
1z
1?!
0~
0O!
0J!
0H!
1F!
0B!
0*
1(
0'
0&
0$
0>!
1<!
1I!
0E!
#120000
0!
06
07
#130000
1!
16
17
1k!
19
08
1:
0v
0q
0r
0w
0x
0s
1t
0y
0z
#140000
0!
06
07
#150000
1!
16
17
0k!
0{
0+
0,
09
18
1y
0:
1z
1v
1q
1r
1w
1x
1s
0t
0y
0z
#160000
0!
06
07
#170000
1!
16
17
1k!
19
08
1:
0v
0q
0r
0w
0x
0s
1t
1y
1z
#180000
0!
06
07
#190000
1!
16
17
0k!
1{
1+
1,
09
18
0y
0:
0z
1v
1q
1r
1w
1x
1s
0t
1y
1z
0?!
1=!
1J!
0F!
0(
1&
1:!
0<!
0K!
1G!
1A!
#200000
0!
06
07
#210000
1!
16
17
1k!
19
08
1:
0v
0q
0r
0w
0x
0s
1t
0y
0z
#220000
0!
06
07
#230000
1!
16
17
0k!
0{
0+
0,
09
18
1y
0:
1z
1v
1q
1r
1w
1x
1s
0t
0y
0z
#240000
0!
06
07
#250000
1!
16
17
1k!
19
08
1:
0v
0q
0r
0w
0x
0s
1t
1y
1z
#260000
0!
06
07
#270000
1!
16
17
0k!
1{
1+
1,
09
18
0y
0:
0z
1v
1q
1r
1w
1x
1s
0t
1y
1z
0=!
1;!
0L!
1H!
1B!
1*
1'
0%
18!
0:!
0G!
0A!
1C!
#280000
0!
06
07
#290000
1!
16
17
1k!
19
08
1:
0v
0q
0r
0w
0x
0s
1t
0y
0z
#300000
0!
06
07
#310000
1!
16
17
0k!
0{
0+
0,
09
18
1y
0:
1z
1v
1q
1r
1w
1x
1s
0t
0y
0z
#320000
1#
0!
1|
06
07
1.
1<!
08!
0C!
1K!
#330000
1!
16
17
1k!
19
08
1:
0v
0q
0r
0w
0x
0s
1t
1y
1z
#340000
0!
06
07
#350000
1!
16
17
0k!
1{
1+
1,
09
18
0y
0:
0z
1v
1q
1r
1w
1x
1s
0t
1y
1z
1=!
0;!
1L!
0H!
0B!
0*
0'
1%
0<!
1>!
1E!
0I!
#360000
0!
06
07
#370000
1!
16
17
1k!
19
08
1:
0v
0q
0r
0w
0x
0s
1t
0y
0z
#380000
0!
06
07
#390000
1!
16
17
0k!
0{
0+
0,
09
18
1y
0:
1z
1v
1q
1r
1w
1x
1s
0t
0y
0z
#400000
0!
06
07
#410000
1!
16
17
1k!
19
08
1:
0v
0q
0r
0w
0x
0s
1t
1y
1z
#420000
0!
06
07
#430000
1!
16
17
0k!
1{
1+
1,
09
18
0y
0:
0z
1v
1q
1r
1w
1x
1s
0t
1y
1z
1?!
0=!
0J!
1F!
1(
0&
0>!
1@!
1N!
1I!
1G!
1A!
0E!
#440000
0!
06
07
#450000
1!
16
17
1k!
19
08
1:
0v
0q
0r
0w
0x
0s
1t
0y
0z
#460000
0!
06
07
#470000
1!
16
17
0k!
0{
0+
0,
09
18
1y
0:
1z
1v
1q
1r
1w
1x
1s
0t
0y
0z
#480000
0!
06
07
#490000
1!
16
17
1k!
19
08
1:
0v
0q
0r
0w
0x
0s
1t
1y
1z
#500000
0!
06
07
#510000
1!
16
17
0k!
1{
1+
1,
09
18
0y
0:
0z
1v
1q
1r
1w
1x
1s
0t
1y
1z
0?!
1~
1O!
1J!
1H!
0F!
1B!
1*
0(
1'
1&
1$
0M!
0@!
0!!
0K!
0I!
0G!
0A!
#520000
0!
06
07
#530000
1!
16
17
1k!
19
08
1:
0v
0q
0r
0w
0x
0s
1t
0y
0z
#540000
0!
06
07
#550000
1!
16
17
0k!
0{
0+
0,
09
18
1y
0:
1z
1v
1q
1r
1w
1x
1s
0t
0y
0z
#560000
0!
06
07
#570000
1!
16
17
1k!
19
08
1:
0v
0q
0r
0w
0x
0s
1t
1y
1z
#580000
0!
06
07
#590000
1!
16
17
0k!
1{
1+
1,
09
18
0y
0:
0z
1v
1q
1r
1w
1x
1s
0t
1y
1z
0"!
0~
0L!
0J!
0H!
0B!
0*
0'
0&
0%
1M!
1#!
1!!
1G!
1E!
1C!
0N!
#600000
0!
06
07
#610000
1!
16
17
1k!
19
08
1:
0v
0q
0r
0w
0x
0s
1t
0y
0z
#620000
0!
06
07
#630000
1!
16
17
0k!
0{
0+
0,
09
18
1y
0:
1z
1v
1q
1r
1w
1x
1s
0t
0y
0z
#640000
0#
0!
0|
06
07
0.
1@!
0#!
0E!
0C!
1N!
1K!
1I!
1A!
#650000
1!
16
17
1k!
19
08
1:
0v
0q
0r
0w
0x
0s
1t
1y
1z
#660000
0!
06
07
#670000
1!
16
17
0k!
1{
1+
1,
09
18
0y
0:
0z
1v
1q
1r
1w
1x
1s
0t
1y
1z
1"!
1~
1L!
1J!
1H!
1B!
1*
1'
1&
1%
1>!
0@!
0N!
0I!
0G!
0A!
1E!
#680000
0!
06
07
#690000
1!
16
17
1k!
19
08
1:
0v
0q
0r
0w
0x
0s
1t
0y
0z
#700000
0!
06
07
#710000
1!
16
17
0k!
0{
0+
0,
09
18
1y
0:
1z
1v
1q
1r
1w
1x
1s
0t
0y
0z
#720000
0!
06
07
#730000
1!
16
17
1k!
19
08
1:
0v
0q
0r
0w
0x
0s
1t
1y
1z
#740000
0!
06
07
#750000
1!
16
17
0k!
1{
1+
1,
09
18
0y
0:
0z
1v
1q
1r
1w
1x
1s
0t
1y
1z
1?!
0~
0O!
0J!
0H!
1F!
0B!
0*
1(
0'
0&
0$
0>!
1<!
1I!
0E!
#760000
0!
06
07
#770000
1!
16
17
1k!
19
08
1:
0v
0q
0r
0w
0x
0s
1t
0y
0z
#780000
0!
06
07
#790000
1!
16
17
0k!
0{
0+
0,
09
18
1y
0:
1z
1v
1q
1r
1w
1x
1s
0t
0y
0z
#800000
0!
06
07
#810000
1!
16
17
1k!
19
08
1:
0v
0q
0r
0w
0x
0s
1t
1y
1z
#820000
0!
06
07
#830000
1!
16
17
0k!
1{
1+
1,
09
18
0y
0:
0z
1v
1q
1r
1w
1x
1s
0t
1y
1z
0?!
1=!
1J!
0F!
0(
1&
1:!
0<!
0K!
1G!
1A!
#840000
0!
06
07
#850000
1!
16
17
1k!
19
08
1:
0v
0q
0r
0w
0x
0s
1t
0y
0z
#860000
0!
06
07
#870000
1!
16
17
0k!
0{
0+
0,
09
18
1y
0:
1z
1v
1q
1r
1w
1x
1s
0t
0y
0z
#880000
0!
06
07
#890000
1"
1!
1}
16
17
1-
0M!
0:!
0!!
0I!
0G!
0A!
1N!
1k!
19
08
1:
0v
0q
0r
0w
0x
0s
1t
1y
1z
#900000
0!
06
07
#910000
1!
16
17
0k!
1{
1+
1,
09
18
0y
0:
0z
1v
1q
1r
1w
1x
1s
0t
1y
1z
0=!
0"!
1O!
0L!
0J!
0&
0%
1$
#920000
0!
06
07
#930000
1!
16
17
1k!
19
08
1:
0v
0q
0r
0w
0x
0s
1t
0y
0z
#940000
0!
06
07
#950000
1!
16
17
0k!
0{
0+
0,
09
18
1y
0:
1z
1v
1q
1r
1w
1x
1s
0t
0y
0z
#960000
1#
0!
1|
06
07
1.
#970000
1!
16
17
1k!
19
08
1:
0v
0q
0r
0w
0x
0s
1t
1y
1z
#980000
0!
06
07
#990000
1!
16
17
0k!
1{
1+
1,
09
18
0y
0:
0z
1v
1q
1r
1w
1x
1s
0t
1y
1z
