08 - A Finite State Machine - Up Down Counter/lab08_p/simulation/qsim/lab08_p.msim.vcd
$comment
	File created using the following command:
		vcd file lab08_p.msim.vcd -direction
$end
$date
	Wed Nov 25 16:36:28 2020
$end
$version
	ModelSim Version 10.5b
$end
$timescale
	1ps
$end

$scope module lab08_p_vlg_vec_tst $end
$var reg 1 ! clock $end
$var reg 1 " reset $end
$var reg 1 # w $end
$var wire 1 $ SSD [6] $end
$var wire 1 % SSD [5] $end
$var wire 1 & SSD [4] $end
$var wire 1 ' SSD [3] $end
$var wire 1 ( SSD [2] $end
$var wire 1 ) SSD [1] $end
$var wire 1 * SSD [0] $end
$var wire 1 + clock_1Hz $end
$var wire 1 , reset_LED $end
$var wire 1 - w_LED $end

$scope module i1 $end
$var wire 1 . gnd $end
$var wire 1 / vcc $end
$var wire 1 0 unknown $end
$var tri1 1 1 devclrn $end
$var tri1 1 2 devpor $end
$var tri1 1 3 devoe $end
$var wire 1 4 ~QUARTUS_CREATED_GND~I_combout $end
$var wire 1 5 clock~input_o $end
$var wire 1 6 clock~inputCLKENA0_outclk $end
$var wire 1 7 comb_5|Add0~109_sumout $end
$var wire 1 8 comb_5|Add0~110 $end
$var wire 1 9 comb_5|Add0~93_sumout $end
$var wire 1 : comb_5|Add0~94 $end
$var wire 1 ; comb_5|Add0~97_sumout $end
$var wire 1 < comb_5|Add0~98 $end
$var wire 1 = comb_5|Add0~101_sumout $end
$var wire 1 > comb_5|Add0~102 $end
$var wire 1 ? comb_5|Add0~105_sumout $end
$var wire 1 @ comb_5|Add0~106 $end
$var wire 1 A comb_5|Add0~73_sumout $end
$var wire 1 B comb_5|Add0~74 $end
$var wire 1 C comb_5|Add0~77_sumout $end
$var wire 1 D comb_5|Add0~78 $end
$var wire 1 E comb_5|Add0~33_sumout $end
$var wire 1 F comb_5|Add0~34 $end
$var wire 1 G comb_5|Add0~37_sumout $end
$var wire 1 H comb_5|Add0~38 $end
$var wire 1 I comb_5|Add0~41_sumout $end
$var wire 1 J comb_5|Add0~42 $end
$var wire 1 K comb_5|Add0~45_sumout $end
$var wire 1 L comb_5|Add0~46 $end
$var wire 1 M comb_5|Add0~49_sumout $end
$var wire 1 N comb_5|Add0~50 $end
$var wire 1 O comb_5|Add0~81_sumout $end
$var wire 1 P comb_5|Add0~82 $end
$var wire 1 Q comb_5|Add0~85_sumout $end
$var wire 1 R comb_5|Add0~86 $end
$var wire 1 S comb_5|Add0~89_sumout $end
$var wire 1 T comb_5|Add0~90 $end
$var wire 1 U comb_5|Add0~53_sumout $end
$var wire 1 V comb_5|Add0~54 $end
$var wire 1 W comb_5|Add0~13_sumout $end
$var wire 1 X comb_5|Add0~14 $end
$var wire 1 Y comb_5|Add0~57_sumout $end
$var wire 1 Z comb_5|Add0~58 $end
$var wire 1 [ comb_5|Add0~17_sumout $end
$var wire 1 \ comb_5|Add0~18 $end
$var wire 1 ] comb_5|Add0~21_sumout $end
$var wire 1 ^ comb_5|Add0~22 $end
$var wire 1 _ comb_5|Add0~25_sumout $end
$var wire 1 ` comb_5|Add0~26 $end
$var wire 1 a comb_5|Add0~29_sumout $end
$var wire 1 b comb_5|Add0~30 $end
$var wire 1 c comb_5|Add0~61_sumout $end
$var wire 1 d comb_5|Add0~62 $end
$var wire 1 e comb_5|Add0~65_sumout $end
$var wire 1 f comb_5|Add0~66 $end
$var wire 1 g comb_5|Add0~69_sumout $end
$var wire 1 h comb_5|Add0~70 $end
$var wire 1 i comb_5|Add0~2 $end
$var wire 1 j comb_5|Add0~5_sumout $end
$var wire 1 k comb_5|Add0~6 $end
$var wire 1 l comb_5|Add0~9_sumout $end
$var wire 1 m comb_5|LessThan0~0_combout $end
$var wire 1 n comb_5|LessThan0~1_combout $end
$var wire 1 o comb_5|LessThan0~5_combout $end
$var wire 1 p comb_5|LessThan0~6_combout $end
$var wire 1 q comb_5|LessThan0~7_combout $end
$var wire 1 r comb_5|LessThan0~8_combout $end
$var wire 1 s comb_5|Add0~1_sumout $end
$var wire 1 t comb_5|LessThan0~2_combout $end
$var wire 1 u comb_5|LessThan0~3_combout $end
$var wire 1 v comb_5|LessThan0~4_combout $end
$var wire 1 w comb_5|clock_1Hz~0_combout $end
$var wire 1 x comb_5|clock_1Hz~q $end
$var wire 1 y d.0001~q $end
$var wire 1 z reset~input_o $end
$var wire 1 { w~input_o $end
$var wire 1 | D~52_combout $end
$var wire 1 } d.0000~q $end
$var wire 1 ~ D~46_combout $end
$var wire 1 !! d.1111~q $end
$var wire 1 "! D~45_combout $end
$var wire 1 #! d.1110~q $end
$var wire 1 $! D~41_combout $end
$var wire 1 %! d.1101~q $end
$var wire 1 &! D~44_combout $end
$var wire 1 '! d.1100~q $end
$var wire 1 (! D~40_combout $end
$var wire 1 )! d.1011~q $end
$var wire 1 *! D~51_combout $end
$var wire 1 +! d.1010~q $end
$var wire 1 ,! D~48_combout $end
$var wire 1 -! d.1001~q $end
$var wire 1 .! D~53_combout $end
$var wire 1 /! d.1000~q $end
$var wire 1 0! D~49_combout $end
$var wire 1 1! d.0111~q $end
$var wire 1 2! D~42_combout $end
$var wire 1 3! d.0110~q $end
$var wire 1 4! D~43_combout $end
$var wire 1 5! d.0101~q $end
$var wire 1 6! D~39_combout $end
$var wire 1 7! d.0100~q $end
$var wire 1 8! D~50_combout $end
$var wire 1 9! d.0011~q $end
$var wire 1 :! D~47_combout $end
$var wire 1 ;! d.0010~q $end
$var wire 1 <! D~38_combout $end
$var wire 1 =! WideOr6~combout $end
$var wire 1 >! SSD[0]~reg0_q $end
$var wire 1 ?! WideOr5~combout $end
$var wire 1 @! SSD[1]~reg0_q $end
$var wire 1 A! WideOr4~combout $end
$var wire 1 B! SSD[2]~reg0_q $end
$var wire 1 C! WideOr3~combout $end
$var wire 1 D! SSD[3]~reg0_q $end
$var wire 1 E! WideOr2~combout $end
$var wire 1 F! SSD[4]~reg0_q $end
$var wire 1 G! WideOr1~combout $end
$var wire 1 H! SSD[5]~reg0_q $end
$var wire 1 I! WideOr0~0_combout $end
$var wire 1 J! WideOr0~combout $end
$var wire 1 K! SSD[6]~reg0_q $end
$var wire 1 L! comb_5|count [27] $end
$var wire 1 M! comb_5|count [26] $end
$var wire 1 N! comb_5|count [25] $end
$var wire 1 O! comb_5|count [24] $end
$var wire 1 P! comb_5|count [23] $end
$var wire 1 Q! comb_5|count [22] $end
$var wire 1 R! comb_5|count [21] $end
$var wire 1 S! comb_5|count [20] $end
$var wire 1 T! comb_5|count [19] $end
$var wire 1 U! comb_5|count [18] $end
$var wire 1 V! comb_5|count [17] $end
$var wire 1 W! comb_5|count [16] $end
$var wire 1 X! comb_5|count [15] $end
$var wire 1 Y! comb_5|count [14] $end
$var wire 1 Z! comb_5|count [13] $end
$var wire 1 [! comb_5|count [12] $end
$var wire 1 \! comb_5|count [11] $end
$var wire 1 ]! comb_5|count [10] $end
$var wire 1 ^! comb_5|count [9] $end
$var wire 1 _! comb_5|count [8] $end
$var wire 1 `! comb_5|count [7] $end
$var wire 1 a! comb_5|count [6] $end
$var wire 1 b! comb_5|count [5] $end
$var wire 1 c! comb_5|count [4] $end
$var wire 1 d! comb_5|count [3] $end
$var wire 1 e! comb_5|count [2] $end
$var wire 1 f! comb_5|count [1] $end
$var wire 1 g! comb_5|count [0] $end
$upscope $end
$upscope $end
$enddefinitions $end
#0
$dumpvars
0!
0"
0#
0*
0)
0(
0'
0&
0%
0$
0+
0,
0-
0.
1/
x0
11
12
13
04
05
06
17
08
09
0:
0;
0<
0=
0>
0?
0@
0A
0B
0C
0D
0E
0F
0G
0H
0I
0J
0K
0L
0M
0N
0O
0P
0Q
0R
0S
0T
0U
0V
0W
0X
0Y
0Z
0[
0\
0]
0^
0_
0`
0a
0b
0c
0d
0e
0f
0g
0h
0i
0j
0k
0l
1m
1n
1o
1p
1q
0r
0s
1t
1u
1v
0w
0x
0y
0z
0{
1|
0}
0~
0!!
0"!
0#!
0$!
0%!
0&!
0'!
0(!
0)!
0*!
0+!
0,!
0-!
0.!
0/!
00!
01!
02!
03!
04!
05!
06!
07!
08!
09!
0:!
0;!
1<!
1=!
0>!
0?!
0@!
0A!
0B!
1C!
0D!
1E!
0F!
1G!
0H!
1I!
1J!
0K!
0g!
0f!
0e!
0d!
0c!
0b!
0a!
0`!
0_!
0^!
0]!
0\!
0[!
0Z!
0Y!
0X!
0W!
0V!
0U!
0T!
0S!
0R!
0Q!
0P!
0O!
0N!
0M!
0L!
$end
#10000
1!
15
16
1g!
18
07
19
0t
0o
0p
0u
0v
0q
1r
1w
#20000
0!
05
06
#30000
1!
15
16
0g!
1x
1+
08
17
0w
09
1t
1o
1p
1u
1v
1q
0r
1w
1}
1y
1K!
1H!
1F!
1D!
1>!
1*
1'
1&
1%
1$
1:!
0<!
0J!
0E!
0C!
0=!
1A!
#40000
0!
05
06
#50000
1!
15
16
1g!
18
07
19
0t
0o
0p
0u
0v
0q
1r
0w
#60000
0!
05
06
#70000
1!
15
16
0g!
0x
0+
08
17
1w
09
1t
1o
1p
1u
1v
1q
0r
0w
#80000
0!
05
06
#90000
1!
15
16
1g!
18
07
19
0t
0o
0p
0u
0v
0q
1r
1w
#100000
0!
05
06
#110000
1!
15
16
0g!
1x
1+
08
17
0w
09
1t
1o
1p
1u
1v
1q
0r
1w
1;!
0y
0K!
0F!
0D!
1B!
0>!
0*
1(
0'
0&
0$
0:!
18!
1E!
0A!
#120000
0!
05
06
#130000
1!
15
16
1g!
18
07
19
0t
0o
0p
0u
0v
0q
1r
0w
#140000
0!
05
06
#150000
1!
15
16
0g!
0x
0+
08
17
1w
09
1t
1o
1p
1u
1v
1q
0r
0w
#160000
0!
05
06
#170000
1!
15
16
1g!
18
07
19
0t
0o
0p
0u
0v
0q
1r
1w
#180000
0!
05
06
#190000
1!
15
16
0g!
1x
1+
08
17
0w
09
1t
1o
1p
1u
1v
1q
0r
1w
0;!
19!
1F!
0B!
0(
1&
16!
08!
0G!
1C!
1=!
#200000
0!
05
06
#210000
1!
15
16
1g!
18
07
19
0t
0o
0p
0u
0v
0q
1r
0w
#220000
0!
05
06
#230000
1!
15
16
0g!
0x
0+
08
17
1w
09
1t
1o
1p
1u
1v
1q
0r
0w
#240000
0!
05
06
#250000
1!
15
16
1g!
18
07
19
0t
0o
0p
0u
0v
0q
1r
1w
#260000
0!
05
06
#270000
1!
15
16
0g!
1x
1+
08
17
0w
09
1t
1o
1p
1u
1v
1q
0r
1w
09!
17!
0H!
1D!
1>!
1*
1'
0%
14!
06!
0C!
0=!
1?!
#280000
0!
05
06
#290000
1!
15
16
1g!
18
07
19
0t
0o
0p
0u
0v
0q
1r
0w
#300000
0!
05
06
#310000
1!
15
16
0g!
0x
0+
08
17
1w
09
1t
1o
1p
1u
1v
1q
0r
0w
#320000
1#
0!
1{
05
06
1-
18!
04!
0?!
1G!
#330000
1!
15
16
1g!
18
07
19
0t
0o
0p
0u
0v
0q
1r
1w
#340000
0!
05
06
#350000
1!
15
16
0g!
1x
1+
08
17
0w
09
1t
1o
1p
1u
1v
1q
0r
1w
19!
07!
1H!
0D!
0>!
0*
0'
1%
08!
1:!
1A!
0E!
#360000
0!
05
06
#370000
1!
15
16
1g!
18
07
19
0t
0o
0p
0u
0v
0q
1r
0w
#380000
0!
05
06
#390000
1!
15
16
0g!
0x
0+
08
17
1w
09
1t
1o
1p
1u
1v
1q
0r
0w
#400000
0!
05
06
#410000
1!
15
16
1g!
18
07
19
0t
0o
0p
0u
0v
0q
1r
1w
#420000
0!
05
06
#430000
1!
15
16
0g!
1x
1+
08
17
0w
09
1t
1o
1p
1u
1v
1q
0r
1w
1;!
09!
0F!
1B!
1(
0&
0:!
1<!
1J!
1E!
1C!
1=!
0A!
#440000
0!
05
06
#450000
1!
15
16
1g!
18
07
19
0t
0o
0p
0u
0v
0q
1r
0w
#460000
0!
05
06
#470000
1!
15
16
0g!
0x
0+
08
17
1w
09
1t
1o
1p
1u
1v
1q
0r
0w
#480000
0!
05
06
#490000
1!
15
16
1g!
18
07
19
0t
0o
0p
0u
0v
0q
1r
1w
#500000
0!
05
06
#510000
1!
15
16
0g!
1x
1+
08
17
0w
09
1t
1o
1p
1u
1v
1q
0r
1w
0;!
1y
1K!
1F!
1D!
0B!
1>!
1*
0(
1'
1&
1$
0I!
0<!
0|
0G!
0E!
0C!
0=!
#520000
0!
05
06
#530000
1!
15
16
1g!
18
07
19
0t
0o
0p
0u
0v
0q
1r
0w
#540000
0!
05
06
#550000
1!
15
16
0g!
0x
0+
08
17
1w
09
1t
1o
1p
1u
1v
1q
0r
0w
#560000
0!
05
06
#570000
1!
15
16
1g!
18
07
19
0t
0o
0p
0u
0v
0q
1r
1w
#580000
0!
05
06
#590000
1!
15
16
0g!
1x
1+
08
17
0w
09
1t
1o
1p
1u
1v
1q
0r
1w
0}
0y
0H!
0F!
0D!
0>!
0*
0'
0&
0%
1I!
1~
1|
1C!
1A!
1?!
0J!
#600000
0!
05
06
#610000
1!
15
16
1g!
18
07
19
0t
0o
0p
0u
0v
0q
1r
0w
#620000
0!
05
06
#630000
1!
15
16
0g!
0x
0+
08
17
1w
09
1t
1o
1p
1u
1v
1q
0r
0w
#640000
0#
0!
0{
05
06
0-
1<!
0~
0A!
0?!
1J!
1G!
1E!
1=!
#650000
1!
15
16
1g!
18
07
19
0t
0o
0p
0u
0v
0q
1r
1w
#660000
0!
05
06
#670000
1!
15
16
0g!
1x
1+
08
17
0w
09
1t
1o
1p
1u
1v
1q
0r
1w
1}
1y
1H!
1F!
1D!
1>!
1*
1'
1&
1%
1:!
0<!
0J!
0E!
0C!
0=!
1A!
#680000
0!
05
06
#690000
1!
15
16
1g!
18
07
19
0t
0o
0p
0u
0v
0q
1r
0w
#700000
0!
05
06
#710000
1!
15
16
0g!
0x
0+
08
17
1w
09
1t
1o
1p
1u
1v
1q
0r
0w
#720000
0!
05
06
#730000
1!
15
16
1g!
18
07
19
0t
0o
0p
0u
0v
0q
1r
1w
#740000
0!
05
06
#750000
1!
15
16
0g!
1x
1+
08
17
0w
09
1t
1o
1p
1u
1v
1q
0r
1w
1;!
0y
0K!
0F!
0D!
1B!
0>!
0*
1(
0'
0&
0$
0:!
18!
1E!
0A!
#760000
0!
05
06
#770000
1!
15
16
1g!
18
07
19
0t
0o
0p
0u
0v
0q
1r
0w
#780000
0!
05
06
#790000
1!
15
16
0g!
0x
0+
08
17
1w
09
1t
1o
1p
1u
1v
1q
0r
0w
#800000
0!
05
06
#810000
1!
15
16
1g!
18
07
19
0t
0o
0p
0u
0v
0q
1r
1w
#820000
0!
05
06
#830000
1!
15
16
0g!
1x
1+
08
17
0w
09
1t
1o
1p
1u
1v
1q
0r
1w
0;!
19!
1F!
0B!
0(
1&
16!
08!
0G!
1C!
1=!
#840000
0!
05
06
#850000
1!
15
16
1g!
18
07
19
0t
0o
0p
0u
0v
0q
1r
0w
#860000
0!
05
06
#870000
1!
15
16
0g!
0x
0+
08
17
1w
09
1t
1o
1p
1u
1v
1q
0r
0w
#880000
0!
05
06
#890000
1"
1!
1z
15
16
1,
0I!
06!
0|
0E!
0C!
0=!
1J!
1g!
18
07
19
0t
0o
0p
0u
0v
0q
1r
1w
#900000
0!
05
06
#910000
1!
15
16
0g!
1x
1+
08
17
0w
09
1t
1o
1p
1u
1v
1q
0r
1w
09!
0}
1K!
0H!
0F!
0&
0%
1$
#920000
0!
05
06
#930000
1!
15
16
1g!
18
07
19
0t
0o
0p
0u
0v
0q
1r
0w
#940000
0!
05
06
#950000
1!
15
16
0g!
0x
0+
08
17
1w
09
1t
1o
1p
1u
1v
1q
0r
0w
#960000
1#
0!
1{
05
06
1-
#970000
1!
15
16
1g!
18
07
19
0t
0o
0p
0u
0v
0q
1r
1w
#980000
0!
05
06
#990000
1!
15
16
0g!
1x
1+
08
17
0w
09
1t
1o
1p
1u
1v
1q
0r
1w
