06 - Decoders and Encoders/lab06_c/simulation/qsim/lab06_c.msim.vcd
$comment
	File created using the following command:
		vcd file lab06_c.msim.vcd -direction
$end
$date
	Thu Oct 22 18:03:11 2020
$end
$version
	ModelSim Version 10.5b
$end
$timescale
	1ps
$end

$scope module lab06_c_vlg_vec_tst $end
$var reg 8 ! in [7:0] $end
$var wire 1 " out [2] $end
$var wire 1 # out [1] $end
$var wire 1 $ out [0] $end
$var wire 1 % z $end

$scope module i1 $end
$var wire 1 & gnd $end
$var wire 1 ' vcc $end
$var wire 1 ( unknown $end
$var tri1 1 ) devclrn $end
$var tri1 1 * devpor $end
$var tri1 1 + devoe $end
$var wire 1 , ~QUARTUS_CREATED_GND~I_combout $end
$var wire 1 - in[3]~input_o $end
$var wire 1 . in[1]~input_o $end
$var wire 1 / in[2]~input_o $end
$var wire 1 0 out~0_combout $end
$var wire 1 1 in[7]~input_o $end
$var wire 1 2 in[6]~input_o $end
$var wire 1 3 in[4]~input_o $end
$var wire 1 4 in[5]~input_o $end
$var wire 1 5 out~1_combout $end
$var wire 1 6 out~2_combout $end
$var wire 1 7 WideOr0~0_combout $end
$var wire 1 8 in[0]~input_o $end
$var wire 1 9 WideOr0~combout $end
$upscope $end
$upscope $end
$enddefinitions $end
#0
$dumpvars
b0 !
0$
0#
0"
0%
0&
1'
x(
1)
1*
1+
0,
0-
0.
0/
10
01
02
03
04
05
06
17
08
09
$end
#10000
b1 !
18
19
1%
#20000
b11 !
b10 !
08
1.
00
15
1$
#30000
b11 !
18
#40000
b111 !
b101 !
b100 !
08
0.
1/
10
16
1#
05
0$
#50000
b101 !
18
#60000
b111 !
b110 !
08
1.
#70000
b111 !
18
#80000
b1111 !
b1011 !
b1001 !
b1000 !
08
0.
0/
1-
00
15
1$
#90000
b1001 !
18
#100000
b1011 !
b1010 !
08
1.
#110000
b1011 !
18
#120000
b1111 !
b1101 !
b1100 !
08
0.
1/
#130000
b1101 !
18
#140000
b1111 !
b1110 !
08
1.
#150000
b1111 !
18
#160000
b11111 !
b10111 !
b10011 !
b10001 !
b10000 !
08
0.
0/
0-
13
07
10
06
05
09
0%
0$
0#
1"
19
1%
#170000
b10001 !
18
#180000
b10011 !
b10010 !
08
1.
00
#190000
b10011 !
18
#200000
b10111 !
b10101 !
b10100 !
08
0.
1/
10
#210000
b10101 !
18
#220000
b10111 !
b10110 !
08
1.
#230000
b10111 !
18
#240000
b11111 !
b11011 !
b11001 !
b11000 !
08
0.
0/
1-
00
#250000
b11001 !
18
#260000
b11011 !
b11010 !
08
1.
#270000
b11011 !
18
#280000
b11111 !
b11101 !
b11100 !
08
0.
1/
#290000
b11101 !
18
#300000
b11111 !
b11110 !
08
1.
#310000
b11111 !
18
#320000
b111111 !
b101111 !
b100111 !
b100011 !
b100001 !
b100000 !
08
0.
0/
0-
03
14
10
15
1$
#330000
b100001 !
18
#340000
b100011 !
b100010 !
08
1.
00
#350000
b100011 !
18
#360000
b100111 !
b100101 !
b100100 !
08
0.
1/
10
#370000
b100101 !
18
#380000
b100111 !
b100110 !
08
1.
#390000
b100111 !
18
#400000
b101111 !
b101011 !
b101001 !
b101000 !
08
0.
0/
1-
00
#410000
b101001 !
18
#420000
b101011 !
b101010 !
08
1.
#430000
b101011 !
18
#440000
b101111 !
b101101 !
b101100 !
08
0.
1/
#450000
b101101 !
18
#460000
b101111 !
b101110 !
08
1.
#470000
b101111 !
18
#480000
b111111 !
b110111 !
b110011 !
b110001 !
b110000 !
08
0.
0/
0-
13
10
#490000
b110001 !
18
#500000
b110011 !
b110010 !
08
1.
00
#510000
b110011 !
18
#520000
b110111 !
b110101 !
b110100 !
08
0.
1/
10
#530000
b110101 !
18
#540000
b110111 !
b110110 !
08
1.
#550000
b110111 !
18
#560000
b111111 !
b111011 !
b111001 !
b111000 !
08
0.
0/
1-
00
#570000
b111001 !
18
#580000
b111011 !
b111010 !
08
1.
#590000
b111011 !
18
#600000
b111111 !
b111101 !
b111100 !
08
0.
1/
#610000
b111101 !
18
#620000
b111111 !
b111110 !
08
1.
#630000
b111111 !
18
#640000
b1111111 !
b1011111 !
b1001111 !
b1000111 !
b1000011 !
b1000001 !
b1000000 !
08
0.
0/
0-
03
04
12
10
16
05
0$
1#
#650000
b1000001 !
18
#660000
b1000011 !
b1000010 !
08
1.
00
#670000
b1000011 !
18
#680000
b1000111 !
b1000101 !
b1000100 !
08
0.
1/
10
#690000
b1000101 !
18
#700000
b1000111 !
b1000110 !
08
1.
#710000
b1000111 !
18
#720000
b1001111 !
b1001011 !
b1001001 !
b1001000 !
08
0.
0/
1-
00
#730000
b1001001 !
18
#740000
b1001011 !
b1001010 !
08
1.
#750000
b1001011 !
18
#760000
b1001111 !
b1001101 !
b1001100 !
08
0.
1/
#770000
b1001101 !
18
#780000
b1001111 !
b1001110 !
08
1.
#790000
b1001111 !
18
#800000
b1011111 !
b1010111 !
b1010011 !
b1010001 !
b1010000 !
08
0.
0/
0-
13
10
#810000
b1010001 !
18
#820000
b1010011 !
b1010010 !
08
1.
00
#830000
b1010011 !
18
#840000
b1010111 !
b1010101 !
b1010100 !
08
0.
1/
10
#850000
b1010101 !
18
#860000
b1010111 !
b1010110 !
08
1.
#870000
b1010111 !
18
#880000
b1011111 !
b1011011 !
b1011001 !
b1011000 !
08
0.
0/
1-
00
#890000
b1011001 !
18
#900000
b11011001 !
b11011011 !
b11011010 !
08
1.
11
15
1$
#910000
b11011011 !
18
#920000
b11011111 !
b11011101 !
b11011100 !
08
0.
1/
#930000
b11011101 !
18
#940000
b11011111 !
b11011110 !
08
1.
#950000
b11011111 !
18
#960000
b11111111 !
b11101111 !
b11100111 !
b11100011 !
b11100001 !
b11100000 !
08
0.
0/
0-
03
14
10
#970000
b11100001 !
18
#980000
b11100011 !
b11100010 !
08
1.
00
#990000
b11100011 !
18
