06 - Decoders and Encoders/lab06_1/simulation/qsim/lab06_1.msim.vcd
$comment
	File created using the following command:
		vcd file lab06_1.msim.vcd -direction
$end
$date
	Thu Oct 22 17:52:07 2020
$end
$version
	ModelSim Version 10.5b
$end
$timescale
	1ps
$end

$scope module lab06_1_vlg_vec_tst $end
$var reg 3 ! in [2:0] $end
$var wire 1 " out [7] $end
$var wire 1 # out [6] $end
$var wire 1 $ out [5] $end
$var wire 1 % out [4] $end
$var wire 1 & out [3] $end
$var wire 1 ' out [2] $end
$var wire 1 ( out [1] $end
$var wire 1 ) out [0] $end

$scope module i1 $end
$var wire 1 * gnd $end
$var wire 1 + vcc $end
$var wire 1 , unknown $end
$var tri1 1 - devclrn $end
$var tri1 1 . devpor $end
$var tri1 1 / devoe $end
$var wire 1 0 ~QUARTUS_CREATED_GND~I_combout $end
$var wire 1 1 in[1]~input_o $end
$var wire 1 2 in[0]~input_o $end
$var wire 1 3 in[2]~input_o $end
$var wire 1 4 out~0_combout $end
$var wire 1 5 out~1_combout $end
$var wire 1 6 out~2_combout $end
$var wire 1 7 out~3_combout $end
$var wire 1 8 out~4_combout $end
$var wire 1 9 out~5_combout $end
$var wire 1 : out~6_combout $end
$var wire 1 ; out~7_combout $end
$upscope $end
$upscope $end
$enddefinitions $end
#0
$dumpvars
b0 !
1)
0(
0'
0&
0%
0$
0#
0"
0*
1+
x,
1-
1.
1/
00
01
02
03
04
05
06
07
08
09
0:
0;
$end
#10000
b1 !
12
14
15
1(
0)
#20000
b11 !
b10 !
02
11
16
05
0(
1'
#30000
b11 !
12
17
06
0'
1&
#40000
b111 !
b101 !
b100 !
02
01
13
18
07
0&
1%
#50000
b101 !
12
19
08
0%
1$
#60000
b111 !
b110 !
02
11
1:
09
0$
1#
#70000
b111 !
12
1;
0:
0#
1"
#80000
b11 !
b1 !
b0 !
02
01
03
04
0;
0"
1)
#90000
b1 !
12
14
15
1(
0)
#100000
b11 !
b10 !
02
11
16
05
0(
1'
#110000
b11 !
12
17
06
0'
1&
#120000
b111 !
b101 !
b100 !
02
01
13
18
07
0&
1%
#130000
b101 !
12
19
08
0%
1$
#140000
b111 !
b110 !
02
11
1:
09
0$
1#
#150000
b111 !
12
1;
0:
0#
1"
#160000
b11 !
b1 !
b0 !
02
01
03
04
0;
0"
1)
#170000
b1 !
12
14
15
1(
0)
#180000
b11 !
b10 !
02
11
16
05
0(
1'
#190000
b11 !
12
17
06
0'
1&
