01 - Quartus II and the DE10-Standard/lab01e/simulation/qsim/lab01e.msim.vcd
$comment
	File created using the following command:
		vcd file lab01e.msim.vcd -direction
$end
$date
	Wed Sep 16 20:04:35 2020
$end
$version
	ModelSim Version 10.5b
$end
$timescale
	1ps
$end

$scope module lab01e_vlg_vec_tst $end
$var reg 1 ! a $end
$var reg 1 " b $end
$var reg 1 # cin $end
$var wire 1 $ cout $end
$var wire 1 % f [6] $end
$var wire 1 & f [5] $end
$var wire 1 ' f [4] $end
$var wire 1 ( f [3] $end
$var wire 1 ) f [2] $end
$var wire 1 * f [1] $end
$var wire 1 + f [0] $end
$var wire 1 , sum $end

$scope module i1 $end
$var wire 1 - gnd $end
$var wire 1 . vcc $end
$var wire 1 / unknown $end
$var tri1 1 0 devclrn $end
$var tri1 1 1 devpor $end
$var tri1 1 2 devoe $end
$var wire 1 3 ~QUARTUS_CREATED_GND~I_combout $end
$var wire 1 4 b~input_o $end
$var wire 1 5 a~input_o $end
$var wire 1 6 cin~input_o $end
$var wire 1 7 u1~combout $end
$var wire 1 8 u4~combout $end
$var wire 1 9 Decoder0~0_combout $end
$var wire 1 : Decoder0~1_combout $end
$var wire 1 ; Decoder0~2_combout $end
$upscope $end
$upscope $end
$enddefinitions $end
#0
$dumpvars
0!
0"
0#
0$
0+
0*
0)
0(
0'
0&
1%
0,
0-
1.
x/
10
11
12
03
04
05
06
07
08
09
0:
0;
$end
#10000
1!
15
1;
19
17
1,
1'
1+
1(
1&
#20000
1"
0!
14
05
#30000
1#
1!
16
15
09
18
0%
1$
0+
0(
#40000
0"
0!
04
05
19
08
1%
0$
1+
1(
#50000
1!
15
1:
09
18
07
0%
0,
0'
1$
0+
0(
1)
#60000
0#
1"
0!
06
14
05
0:
19
08
17
1%
1,
1'
0$
1+
1(
0)
#70000
1!
15
1:
09
18
07
0%
0,
0'
1$
0+
0(
1)
#80000
0"
0!
04
05
0;
0:
08
1%
0$
0)
0&
#90000
1#
1!
16
15
1;
1:
18
0%
1$
1)
1&
#100000
1"
0!
14
05
#110000
1!
15
0:
17
1,
1'
0)
#120000
0#
0"
0!
06
04
05
0;
08
07
1%
0,
0'
0$
0&
#130000
1!
15
1;
19
17
1,
1'
1+
1(
1&
#140000
1"
0!
14
05
