04 - 4x1 Multiplexer/lab4_3/simulation/qsim/lab04_3.msim.vcd
$comment
	File created using the following command:
		vcd file lab04_3.msim.vcd -direction
$end
$date
	Sun Oct 04 02:43:34 2020
$end
$version
	ModelSim Version 10.5b
$end
$timescale
	1ps
$end

$scope module lab04_3_vlg_vec_tst $end
$var reg 4 ! in [3:0] $end
$var reg 2 " select [9:8] $end
$var wire 1 # LED [9] $end
$var wire 1 $ LED [8] $end
$var wire 1 % LED [7] $end
$var wire 1 & LED [6] $end
$var wire 1 ' LED [5] $end
$var wire 1 ( LED [4] $end
$var wire 1 ) LED [3] $end
$var wire 1 * LED [2] $end
$var wire 1 + LED [1] $end
$var wire 1 , LED [0] $end
$var wire 1 - out $end

$scope module i1 $end
$var wire 1 . gnd $end
$var wire 1 / vcc $end
$var wire 1 0 unknown $end
$var tri1 1 1 devclrn $end
$var tri1 1 2 devpor $end
$var tri1 1 3 devoe $end
$var wire 1 4 ~QUARTUS_CREATED_GND~I_combout $end
$var wire 1 5 in[0]~input_o $end
$var wire 1 6 in[1]~input_o $end
$var wire 1 7 in[2]~input_o $end
$var wire 1 8 in[3]~input_o $end
$var wire 1 9 select[9]~input_o $end
$var wire 1 : select[8]~input_o $end
$var wire 1 ; Mux0~0_combout $end
$upscope $end
$upscope $end
$enddefinitions $end
#0
$dumpvars
b0 !
b0 "
0,
0+
0*
0)
0(
0'
0&
0%
0$
0#
0-
0.
1/
x0
11
12
13
04
05
06
07
08
09
0:
0;
$end
#10000
b1 !
b10 "
19
15
1,
1#
#15000
b11 !
b11 "
1:
16
1+
1$
#20000
b111 !
b110 !
b1 "
09
05
17
1*
0,
0#
1;
1&
1-
#25000
b1110 !
18
1)
#30000
b1100 !
b0 "
b1101 !
b10 "
0:
19
15
06
0+
1,
1#
0$
#40000
b1001 !
b1000 !
b0 "
09
05
07
0*
0,
0#
0;
0&
0-
#45000
b1010 !
b1 "
1:
16
1+
1$
1;
1&
1-
#50000
b10 !
b11 !
b11 "
19
15
08
0)
1,
1#
0;
0&
0-
#60000
b111 !
b101 !
b10 "
b100 !
b0 "
0:
09
05
06
17
1*
0+
0,
0#
0$
#70000
b101 !
b10 "
19
15
1,
1#
1;
1&
1-
#75000
b1101 !
b1111 !
b11 "
1:
16
18
1)
1+
1$
#80000
b1011 !
b1010 !
b1 "
09
05
07
0*
0,
0#
#90000
b1000 !
b0 "
b1001 !
b10 "
0:
19
15
06
0+
1,
1#
0$
0;
0&
0-
#100000
b1 !
b101 !
b100 !
b0 "
09
05
17
08
0)
1*
0,
0#
#105000
b110 !
b1 "
1:
16
1+
1$
1;
1&
1-
#110000
b111 !
b11 "
19
15
1,
1#
0;
0&
0-
#120000
b11 !
b1 !
b10 "
b0 !
b0 "
0:
09
05
06
07
0*
0+
0,
0#
0$
#125000
b1000 !
18
1)
#130000
b1001 !
b10 "
19
15
1,
1#
#135000
b1011 !
b11 "
1:
16
1+
1$
1;
1&
1-
#140000
b1111 !
b1110 !
b1 "
09
05
17
1*
0,
0#
#150000
b110 !
b100 !
b0 "
b101 !
b10 "
0:
19
15
06
08
0)
0+
1,
1#
0$
#160000
b1 !
b0 !
b0 "
09
05
07
0*
0,
0#
0;
0&
0-
#165000
b10 !
b1 "
1:
16
1+
1$
1;
1&
1-
#170000
b11 !
b11 "
19
15
1,
1#
0;
0&
0-
#175000
b1011 !
18
1)
1;
1&
1-
#180000
b1111 !
b1101 !
b10 "
b1100 !
b0 "
0:
09
05
06
17
1*
0+
0,
0#
0$
0;
0&
0-
#190000
b1101 !
b10 "
19
15
1,
1#
1;
1&
1-
#195000
b1111 !
b11 "
1:
16
1+
1$
