test5/simulation/qsim/test5.msim.vcd
$comment
	File created using the following command:
		vcd file test5.msim.vcd -direction
$end
$date
	Fri Dec 04 01:04:11 2020
$end
$version
	ModelSim Version 10.5b
$end
$timescale
	1ps
$end

$scope module test5_vlg_vec_tst $end
$var reg 1 ! D $end
$var reg 1 " internal_clock $end
$var reg 1 # reset_alarm $end
$var reg 1 $ stop $end
$var wire 1 % D_LED $end
$var wire 1 & alarm_LED $end
$var wire 1 ' clock_1s $end
$var wire 1 ( reset_alarm_LED $end

$scope module i1 $end
$var wire 1 ) gnd $end
$var wire 1 * vcc $end
$var wire 1 + unknown $end
$var tri1 1 , devclrn $end
$var tri1 1 - devpor $end
$var tri1 1 . devoe $end
$var wire 1 / clock_1s~output_o $end
$var wire 1 0 D_LED~output_o $end
$var wire 1 1 reset_alarm_LED~output_o $end
$var wire 1 2 alarm_LED~output_o $end
$var wire 1 3 internal_clock~input_o $end
$var wire 1 4 comb_3|Add0~109_sumout $end
$var wire 1 5 comb_3|Add0~2 $end
$var wire 1 6 comb_3|Add0~33_sumout $end
$var wire 1 7 comb_3|Add0~34 $end
$var wire 1 8 comb_3|Add0~29_sumout $end
$var wire 1 9 comb_3|Add0~30 $end
$var wire 1 : comb_3|Add0~25_sumout $end
$var wire 1 ; comb_3|Add0~26 $end
$var wire 1 < comb_3|Add0~21_sumout $end
$var wire 1 = comb_3|Add0~22 $end
$var wire 1 > comb_3|Add0~17_sumout $end
$var wire 1 ? comb_3|Add0~18 $end
$var wire 1 @ comb_3|Add0~13_sumout $end
$var wire 1 A comb_3|LessThan0~1_combout $end
$var wire 1 B comb_3|Add0~14 $end
$var wire 1 C comb_3|Add0~57_sumout $end
$var wire 1 D comb_3|Add0~58 $end
$var wire 1 E comb_3|Add0~53_sumout $end
$var wire 1 F comb_3|Add0~54 $end
$var wire 1 G comb_3|Add0~49_sumout $end
$var wire 1 H comb_3|Add0~50 $end
$var wire 1 I comb_3|Add0~45_sumout $end
$var wire 1 J comb_3|Add0~46 $end
$var wire 1 K comb_3|Add0~41_sumout $end
$var wire 1 L comb_3|Add0~42 $end
$var wire 1 M comb_3|Add0~37_sumout $end
$var wire 1 N comb_3|LessThan0~2_combout $end
$var wire 1 O comb_3|Add0~38 $end
$var wire 1 P comb_3|Add0~105_sumout $end
$var wire 1 Q comb_3|Add0~106 $end
$var wire 1 R comb_3|Add0~101_sumout $end
$var wire 1 S comb_3|Add0~102 $end
$var wire 1 T comb_3|Add0~97_sumout $end
$var wire 1 U comb_3|Add0~98 $end
$var wire 1 V comb_3|Add0~93_sumout $end
$var wire 1 W comb_3|Add0~94 $end
$var wire 1 X comb_3|Add0~89_sumout $end
$var wire 1 Y comb_3|Add0~90 $end
$var wire 1 Z comb_3|Add0~85_sumout $end
$var wire 1 [ comb_3|Add0~86 $end
$var wire 1 \ comb_3|Add0~81_sumout $end
$var wire 1 ] comb_3|Add0~82 $end
$var wire 1 ^ comb_3|Add0~77_sumout $end
$var wire 1 _ comb_3|Add0~78 $end
$var wire 1 ` comb_3|Add0~73_sumout $end
$var wire 1 a comb_3|Add0~74 $end
$var wire 1 b comb_3|Add0~69_sumout $end
$var wire 1 c comb_3|Add0~70 $end
$var wire 1 d comb_3|Add0~65_sumout $end
$var wire 1 e comb_3|Add0~66 $end
$var wire 1 f comb_3|Add0~61_sumout $end
$var wire 1 g comb_3|LessThan0~3_combout $end
$var wire 1 h comb_3|LessThan0~4_combout $end
$var wire 1 i comb_3|LessThan0~5_combout $end
$var wire 1 j comb_3|Add0~110 $end
$var wire 1 k comb_3|Add0~5_sumout $end
$var wire 1 l comb_3|Add0~6 $end
$var wire 1 m comb_3|Add0~9_sumout $end
$var wire 1 n comb_3|Add0~10 $end
$var wire 1 o comb_3|Add0~1_sumout $end
$var wire 1 p comb_3|LessThan0~0_combout $end
$var wire 1 q comb_3|clock_1s~0_combout $end
$var wire 1 r comb_3|clock_1s~q $end
$var wire 1 s D~input_o $end
$var wire 1 t reset_alarm~input_o $end
$var wire 1 u stop~input_o $end
$var wire 1 v comb_4|Q~0_combout $end
$var wire 1 w comb_3|count [27] $end
$var wire 1 x comb_3|count [26] $end
$var wire 1 y comb_3|count [25] $end
$var wire 1 z comb_3|count [24] $end
$var wire 1 { comb_3|count [23] $end
$var wire 1 | comb_3|count [22] $end
$var wire 1 } comb_3|count [21] $end
$var wire 1 ~ comb_3|count [20] $end
$var wire 1 !! comb_3|count [19] $end
$var wire 1 "! comb_3|count [18] $end
$var wire 1 #! comb_3|count [17] $end
$var wire 1 $! comb_3|count [16] $end
$var wire 1 %! comb_3|count [15] $end
$var wire 1 &! comb_3|count [14] $end
$var wire 1 '! comb_3|count [13] $end
$var wire 1 (! comb_3|count [12] $end
$var wire 1 )! comb_3|count [11] $end
$var wire 1 *! comb_3|count [10] $end
$var wire 1 +! comb_3|count [9] $end
$var wire 1 ,! comb_3|count [8] $end
$var wire 1 -! comb_3|count [7] $end
$var wire 1 .! comb_3|count [6] $end
$var wire 1 /! comb_3|count [5] $end
$var wire 1 0! comb_3|count [4] $end
$var wire 1 1! comb_3|count [3] $end
$var wire 1 2! comb_3|count [2] $end
$var wire 1 3! comb_3|count [1] $end
$var wire 1 4! comb_3|count [0] $end
$upscope $end
$upscope $end
$enddefinitions $end
#0
$dumpvars
0!
0"
0#
0$
0%
0&
0'
0(
0)
1*
x+
1,
1-
1.
0/
00
01
02
03
14
05
06
07
08
09
0:
0;
0<
0=
0>
0?
0@
1A
0B
0C
0D
0E
0F
0G
0H
0I
0J
0K
0L
0M
1N
0O
0P
0Q
0R
0S
0T
0U
0V
0W
0X
0Y
0Z
0[
0\
0]
0^
0_
0`
0a
0b
0c
0d
0e
0f
1g
1h
0i
0j
0k
0l
0m
0n
0o
1p
0q
0r
0s
0t
0u
0v
04!
03!
02!
01!
00!
0/!
0.!
0-!
0,!
0+!
0*!
0)!
0(!
0'!
0&!
0%!
0$!
0#!
0"!
0!!
0~
0}
0|
0{
0z
0y
0x
0w
$end
#10000
1"
1!
13
1s
10
1%
1v
12
1&
14!
1j
04
1k
#20000
0"
03
#30000
1"
13
13!
04!
0j
0p
1l
14
0k
0l
1i
1k
1m
1q
0m
#40000
0"
03
#50000
1"
13
03!
1r
1/
1p
1'
0k
0q
0i
1q
#60000
0"
03
#70000
1"
13
14!
1j
04
1k
#80000
0"
03
#90000
1"
13
13!
04!
0j
0p
1l
14
0k
0l
1i
1k
1m
0q
0m
#100000
0"
03
#110000
1"
13
03!
0r
0/
1p
0'
0k
1q
0i
0q
#120000
0"
03
#130000
1#
1"
1t
13
11
1(
0v
02
0&
14!
1j
04
1k
#140000
0"
03
#150000
0#
1"
0t
13
01
0(
1v
12
1&
13!
04!
0j
0p
1l
14
0k
0l
1i
1k
1m
1q
0m
#160000
0"
03
#170000
1"
13
03!
1r
1/
1p
1'
0k
0q
0i
1q
#180000
0"
03
#190000
1"
13
14!
1j
04
1k
#200000
0"
03
#210000
1"
13
13!
04!
0j
0p
1l
14
0k
0l
1i
1k
1m
0q
0m
#220000
0"
03
#230000
1"
13
03!
0r
0/
1p
0'
0k
1q
0i
0q
#240000
0"
03
#250000
1"
13
14!
1j
04
1k
#260000
0"
03
#270000
1"
13
13!
04!
0j
0p
1l
14
0k
0l
1i
1k
1m
1q
0m
#280000
1$
0"
1u
03
0v
02
0&
#290000
1"
13
03!
1r
1/
1p
1'
0k
0q
0i
1q
#300000
0"
03
#310000
1"
13
14!
1j
04
1k
#320000
0"
03
#330000
1"
13
13!
04!
0j
0p
1l
14
0k
0l
1i
1k
1m
0q
0m
#340000
0"
03
#350000
1"
13
03!
0r
0/
1p
0'
0k
1q
0i
0q
#360000
0"
03
#370000
1"
13
14!
1j
04
1k
#380000
0"
03
#390000
1"
13
13!
04!
0j
0p
1l
14
0k
0l
1i
1k
1m
1q
0m
#400000
0"
03
#410000
1"
13
03!
1r
1/
1p
1'
0k
0q
0i
1q
#420000
0"
03
#430000
1"
13
14!
1j
04
1k
#440000
0"
03
#450000
1"
13
13!
04!
0j
0p
1l
14
0k
0l
1i
1k
1m
0q
0m
#460000
0"
03
#470000
1"
13
03!
0r
0/
1p
0'
0k
1q
0i
0q
#480000
0"
03
#490000
1"
13
14!
1j
04
1k
#500000
0"
03
#510000
0!
1"
0s
13
00
0%
13!
04!
0j
0p
1l
14
0k
0l
1i
1k
1m
1q
0m
#520000
0"
03
#530000
0$
1"
0u
13
03!
1r
1/
1p
1'
0k
0q
0i
1q
#540000
0"
03
#550000
1"
13
14!
1j
04
1k
#560000
0"
03
#570000
1"
13
13!
04!
0j
0p
1l
14
0k
0l
1i
1k
1m
0q
0m
#580000
0"
03
#590000
1"
13
03!
0r
0/
1p
0'
0k
1q
0i
0q
#600000
0"
03
#610000
1"
13
14!
1j
04
1k
#620000
0"
03
#630000
1"
13
13!
04!
0j
0p
1l
14
0k
0l
1i
1k
1m
1q
0m
#640000
0"
03
#650000
1"
13
03!
1r
1/
1p
1'
0k
0q
0i
1q
#660000
0"
03
#670000
1"
13
14!
1j
04
1k
#680000
0"
03
#690000
1"
13
13!
04!
0j
0p
1l
14
0k
0l
1i
1k
1m
0q
0m
#700000
0"
03
#710000
1"
13
03!
0r
0/
1p
0'
0k
1q
0i
0q
#720000
0"
03
#730000
1"
13
14!
1j
04
1k
#740000
0"
03
#750000
1"
13
13!
04!
0j
0p
1l
14
0k
0l
1i
1k
1m
1q
0m
#760000
0"
03
#770000
1"
13
03!
1r
1/
1p
1'
0k
0q
0i
1q
#780000
0"
03
#790000
1"
13
14!
1j
04
1k
#800000
0"
03
#810000
1"
13
13!
04!
0j
0p
1l
14
0k
0l
1i
1k
1m
0q
0m
#820000
0"
03
#830000
1"
13
03!
0r
0/
1p
0'
0k
1q
0i
0q
#840000
0"
03
#850000
1"
13
14!
1j
04
1k
#860000
0"
03
#870000
1"
13
13!
04!
0j
0p
1l
14
0k
0l
1i
1k
1m
1q
0m
#880000
0"
03
#890000
1"
13
03!
1r
1/
1p
1'
0k
0q
0i
1q
#900000
0"
03
#910000
1"
13
14!
1j
04
1k
#920000
0"
03
#930000
1"
13
13!
04!
0j
0p
1l
14
0k
0l
1i
1k
1m
0q
0m
#940000
0"
03
#950000
1"
13
03!
0r
0/
1p
0'
0k
1q
0i
0q
#960000
0"
03
#970000
1"
13
14!
1j
04
1k
#980000
0"
03
#990000
1"
13
13!
04!
0j
0p
1l
14
0k
0l
1i
1k
1m
1q
0m
