04 - 4x1 Multiplexer/lab4_2/simulation/qsim/lab04_2.msim.vcd
$comment
	File created using the following command:
		vcd file lab04_2.msim.vcd -direction
$end
$date
	Thu Oct 08 16:38:14 2020
$end
$version
	ModelSim Version 10.5b
$end
$timescale
	1ps
$end

$scope module lab04_2_vlg_vec_tst $end
$var reg 4 ! in [3:0] $end
$var reg 2 " select [9:8] $end
$var wire 1 # LED [9] $end
$var wire 1 $ LED [8] $end
$var wire 1 % LED [7] $end
$var wire 1 & LED [6] $end
$var wire 1 ' LED [5] $end
$var wire 1 ( LED [4] $end
$var wire 1 ) LED [3] $end
$var wire 1 * LED [2] $end
$var wire 1 + LED [1] $end
$var wire 1 , LED [0] $end
$var wire 1 - out $end

$scope module i1 $end
$var wire 1 . gnd $end
$var wire 1 / vcc $end
$var wire 1 0 unknown $end
$var tri1 1 1 devclrn $end
$var tri1 1 2 devpor $end
$var tri1 1 3 devoe $end
$var wire 1 4 ~QUARTUS_CREATED_GND~I_combout $end
$var wire 1 5 select[9]~input_o $end
$var wire 1 6 in[0]~input_o $end
$var wire 1 7 select[8]~input_o $end
$var wire 1 8 in[2]~input_o $end
$var wire 1 9 in[1]~input_o $end
$var wire 1 : in[3]~input_o $end
$var wire 1 ; out~0_combout $end
$upscope $end
$upscope $end
$enddefinitions $end
#0
$dumpvars
b0 !
b0 "
0,
0+
0*
0)
0(
0'
0&
0%
0$
0#
0-
0.
1/
x0
11
12
13
04
05
06
07
08
09
0:
0;
$end
#10000
b1 !
16
1,
1;
1-
1&
#20000
b11 !
b10 !
06
19
1+
0,
0;
0-
0&
#30000
b11 !
16
1,
1;
1-
1&
#40000
b111 !
b101 !
b100 !
06
09
18
1*
0+
0,
0;
0-
0&
#50000
b101 !
16
1,
1;
1-
1&
#60000
b111 !
b110 !
06
19
1+
0,
0;
0-
0&
#70000
b111 !
16
1,
1;
1-
1&
#80000
b1111 !
b1011 !
b1001 !
b1000 !
06
09
08
1:
1)
0*
0+
0,
0;
0-
0&
#90000
b1001 !
16
1,
1;
1-
1&
#100000
b1011 !
b1010 !
06
19
1+
0,
0;
0-
0&
#110000
b1011 !
16
1,
1;
1-
1&
#120000
b1111 !
b1101 !
b1100 !
06
09
18
1*
0+
0,
0;
0-
0&
#130000
b1101 !
16
1,
1;
1-
1&
#140000
b1111 !
b1110 !
06
19
1+
0,
0;
0-
0&
#150000
b1111 !
16
1,
1;
1-
1&
#160000
b1 "
b111 !
b11 !
b1 !
b0 !
06
09
08
0:
17
1$
0)
0*
0+
0,
0;
0-
0&
#170000
b1 !
16
1,
#180000
b11 !
b10 !
06
19
1+
0,
1;
1-
1&
#190000
b11 !
16
1,
#200000
b111 !
b101 !
b100 !
06
09
18
1*
0+
0,
0;
0-
0&
#210000
b101 !
16
1,
#220000
b111 !
b110 !
06
19
1+
0,
1;
1-
1&
#230000
b111 !
16
1,
#240000
b1111 !
b1011 !
b1001 !
b1000 !
06
09
08
1:
1)
0*
0+
0,
0;
0-
0&
#250000
b1001 !
16
1,
#260000
b1011 !
b1010 !
06
19
1+
0,
1;
1-
1&
#270000
b1011 !
16
1,
#280000
b1111 !
b1101 !
b1100 !
06
09
18
1*
0+
0,
0;
0-
0&
#290000
b1101 !
16
1,
#300000
b1111 !
b1110 !
06
19
1+
0,
1;
1-
1&
#310000
b1111 !
16
1,
#320000
b11 "
b10 "
b111 !
b11 !
b1 !
b0 !
06
09
08
0:
07
15
1#
0$
0)
0*
0+
0,
0;
0-
0&
#330000
b1 !
16
1,
#340000
b11 !
b10 !
06
19
1+
0,
#350000
b11 !
16
1,
#360000
b111 !
b101 !
b100 !
06
09
18
1*
0+
0,
1;
1-
1&
#370000
b101 !
16
1,
#380000
b111 !
b110 !
06
19
1+
0,
#390000
b111 !
16
1,
#400000
b1111 !
b1011 !
b1001 !
b1000 !
06
09
08
1:
1)
0*
0+
0,
0;
0-
0&
#410000
b1001 !
16
1,
#420000
b1011 !
b1010 !
06
19
1+
0,
#430000
b1011 !
16
1,
#440000
b1111 !
b1101 !
b1100 !
06
09
18
1*
0+
0,
1;
1-
1&
#450000
b1101 !
16
1,
#460000
b1111 !
b1110 !
06
19
1+
0,
#470000
b1111 !
16
1,
#480000
b11 "
b111 !
b11 !
b1 !
b0 !
06
09
08
0:
17
1$
0)
0*
0+
0,
0;
0-
0&
#490000
b1 !
16
1,
#500000
b11 !
b10 !
06
19
1+
0,
#510000
b11 !
16
1,
#520000
b111 !
b101 !
b100 !
06
09
18
1*
0+
0,
#530000
b101 !
16
1,
#540000
b111 !
b110 !
06
19
1+
0,
#550000
b111 !
16
1,
#560000
b1111 !
b1011 !
b1001 !
b1000 !
06
09
08
1:
1)
0*
0+
0,
1;
1-
1&
#570000
b1001 !
16
1,
#580000
b1011 !
b1010 !
06
19
1+
0,
#590000
b1011 !
16
1,
#600000
b1111 !
b1101 !
b1100 !
06
09
18
1*
0+
0,
#610000
b1101 !
16
1,
#620000
b1111 !
b1110 !
06
19
1+
0,
#630000
b1111 !
16
1,
#640000
b1 "
b0 "
b111 !
b11 !
b1 !
b0 !
06
09
08
0:
07
05
0#
0$
0)
0*
0+
0,
0;
0-
0&
#650000
b1 !
16
1,
1;
1-
1&
#660000
b11 !
b10 !
06
19
1+
0,
0;
0-
0&
#670000
b11 !
16
1,
1;
1-
1&
#680000
b111 !
b101 !
b100 !
06
09
18
1*
0+
0,
0;
0-
0&
#690000
b101 !
16
1,
1;
1-
1&
#700000
b111 !
b110 !
06
19
1+
0,
0;
0-
0&
#710000
b111 !
16
1,
1;
1-
1&
#720000
b1111 !
b1011 !
b1001 !
b1000 !
06
09
08
1:
1)
0*
0+
0,
0;
0-
0&
#730000
b1001 !
16
1,
1;
1-
1&
#740000
b1011 !
b1010 !
06
19
1+
0,
0;
0-
0&
#750000
b1011 !
16
1,
1;
1-
1&
#760000
b1111 !
b1101 !
b1100 !
06
09
18
1*
0+
0,
0;
0-
0&
#770000
b1101 !
16
1,
1;
1-
1&
#780000
b1111 !
b1110 !
06
19
1+
0,
0;
0-
0&
#790000
b1111 !
16
1,
1;
1-
1&
#800000
b1 "
b111 !
b11 !
b1 !
b0 !
06
09
08
0:
17
1$
0)
0*
0+
0,
0;
0-
0&
#810000
b1 !
16
1,
#820000
b11 !
b10 !
06
19
1+
0,
1;
1-
1&
#830000
b11 !
16
1,
#840000
b111 !
b101 !
b100 !
06
09
18
1*
0+
0,
0;
0-
0&
#850000
b101 !
16
1,
#860000
b111 !
b110 !
06
19
1+
0,
1;
1-
1&
#870000
b111 !
16
1,
#880000
b1111 !
b1011 !
b1001 !
b1000 !
06
09
08
1:
1)
0*
0+
0,
0;
0-
0&
#890000
b1001 !
16
1,
#900000
b1011 !
b1010 !
06
19
1+
0,
1;
1-
1&
#910000
b1011 !
16
1,
#920000
b1111 !
b1101 !
b1100 !
06
09
18
1*
0+
0,
0;
0-
0&
#930000
b1101 !
16
1,
#940000
b1111 !
b1110 !
06
19
1+
0,
1;
1-
1&
#950000
b1111 !
16
1,
#960000
b11 "
b10 "
b111 !
b11 !
b1 !
b0 !
06
09
08
0:
07
15
1#
0$
0)
0*
0+
0,
0;
0-
0&
#970000
b1 !
16
1,
#980000
b11 !
b10 !
06
19
1+
0,
#990000
b11 !
16
1,
