07 - Latched and Sequential circuits/lab07_e1/simulation/qsim/lab07_e1.msim.vcd
$comment
	File created using the following command:
		vcd file lab07_e1.msim.vcd -direction
$end
$date
	Sun Nov 01 20:25:39 2020
$end
$version
	ModelSim Version 10.5b
$end
$timescale
	1ps
$end

$scope module lab07_e1_vlg_vec_tst $end
$var reg 1 ! J $end
$var reg 1 " K $end
$var reg 1 # key $end
$var wire 1 $ LED0 $end
$var wire 1 % LED1 $end
$var wire 1 & LED9 $end
$var wire 1 ' q $end
$var wire 1 ( qbar $end

$scope module i1 $end
$var wire 1 ) gnd $end
$var wire 1 * vcc $end
$var wire 1 + unknown $end
$var tri1 1 , devclrn $end
$var tri1 1 - devpor $end
$var tri1 1 . devoe $end
$var wire 1 / ~QUARTUS_CREATED_GND~I_combout $end
$var wire 1 0 key~input_o $end
$var wire 1 1 J~input_o $end
$var wire 1 2 K~input_o $end
$var wire 1 3 a3~0_combout $end
$var wire 1 4 a7~0_combout $end
$var wire 1 5 a8~0_combout $end
$upscope $end
$upscope $end
$enddefinitions $end
#0
$dumpvars
0!
0"
0#
0$
0%
0&
0'
1(
0)
1*
x+
1,
1-
1.
0/
00
01
02
03
14
05
$end
#10000
1#
10
1&
#15000
1"
12
1%
#20000
1!
0#
11
00
0&
1$
#30000
0"
1#
02
10
1&
0%
13
#40000
0!
0#
01
00
0&
0$
15
04
1'
0(
#45000
1"
12
1%
#50000
1#
10
1&
03
#60000
1!
0"
0#
11
02
00
0&
0%
1$
14
0'
05
1(
#70000
1#
10
1&
13
#75000
1"
12
1%
#80000
0!
0#
01
00
0&
0$
15
04
1'
0(
#90000
0"
1#
02
10
1&
0%
#100000
1!
0#
11
00
0&
1$
#105000
1"
12
1%
#110000
1#
10
1&
03
#120000
0!
0"
0#
01
02
00
0&
0%
0$
14
0'
05
1(
#130000
1#
10
1&
#135000
1"
12
1%
#140000
1!
0#
11
00
0&
1$
#150000
0"
1#
02
10
1&
0%
13
#160000
0!
0#
01
00
0&
0$
15
04
1'
0(
#165000
1"
12
1%
#170000
1#
10
1&
03
#180000
1!
0"
0#
11
02
00
0&
0%
1$
14
0'
05
1(
#190000
1#
10
1&
13
#195000
1"
12
1%
