07 - Latched and Sequential circuits/lab07_e/simulation/qsim/lab07_e.msim.vcd
$comment
	File created using the following command:
		vcd file lab07_e.msim.vcd -direction
$end
$date
	Sun Nov 01 16:08:48 2020
$end
$version
	ModelSim Version 10.5b
$end
$timescale
	1ps
$end

$scope module lab07_e_vlg_vec_tst $end
$var reg 1 ! J $end
$var reg 1 " K $end
$var reg 1 # clock $end
$var wire 1 $ LED0 $end
$var wire 1 % LED1 $end
$var wire 1 & LED9 $end
$var wire 1 ' Q $end
$var wire 1 ( Qbar $end

$scope module i1 $end
$var wire 1 ) gnd $end
$var wire 1 * vcc $end
$var wire 1 + unknown $end
$var tri1 1 , devclrn $end
$var tri1 1 - devpor $end
$var tri1 1 . devoe $end
$var wire 1 / ~QUARTUS_CREATED_GND~I_combout $end
$var wire 1 0 clock~input_o $end
$var wire 1 1 J~input_o $end
$var wire 1 2 K~input_o $end
$var wire 1 3 comb_5|a3~0_combout $end
$var wire 1 4 comb_6|a3~0_combout $end
$var wire 1 5 comb_6|a4~combout $end
$upscope $end
$upscope $end
$enddefinitions $end
#0
$dumpvars
0!
0"
0#
0$
0%
0&
1'
0(
0)
1*
x+
1,
1-
1.
0/
00
01
02
x3
04
15
$end
#10000
1!
11
1$
#20000
1"
0!
12
01
0$
1%
#30000
1!
11
1$
#40000
1#
0"
0!
10
02
01
0$
0%
1&
x4
x'
x5
x(
#50000
1!
11
1$
#60000
1"
0!
12
01
0$
1%
#70000
1!
11
1$
#80000
0#
0"
0!
00
02
01
0$
0%
0&
#90000
1!
11
1$
#100000
1"
0!
12
01
0$
1%
#110000
1!
11
1$
#120000
1#
0"
0!
10
02
01
0$
0%
1&
#130000
1!
11
1$
#140000
1"
0!
12
01
0$
1%
#150000
1!
11
1$
#160000
0#
0"
0!
00
02
01
0$
0%
0&
#170000
1!
11
1$
#180000
1"
0!
12
01
0$
1%
#190000
1!
11
1$
